{
  "images" : [
    {
      "idiom" : "universal",
      "scale" : "1x"
    },
    {
      "idiom" : "universal",
      "filename" : "photo-1468234847176-28606331216a-1.jpeg",
      "scale" : "2x"
    },
    {
      "idiom" : "universal",
      "filename" : "photo-1468234847176-28606331216a.jpeg",
      "scale" : "3x"
    }
  ],
  "info" : {
    "version" : 1,
    "author" : "xcode"
  }
}